<?xml version="1.0" encoding="utf-8"?>
<!-- Generator: Adobe Illustrator 16.0.0, SVG Export Plug-In . SVG Version: 6.00 Build 0)  -->
<!DOCTYPE svg PUBLIC "-//W3C//DTD SVG 1.1//EN" "http://www.w3.org/Graphics/SVG/1.1/DTD/svg11.dtd">
<svg version="1.1" id="Layer_1" xmlns="http://www.w3.org/2000/svg" xmlns:xlink="http://www.w3.org/1999/xlink" x="0px" y="0px"
	 width="238.373px" height="63.954px" viewBox="0 0 238.373 63.954" enable-background="new 0 0 238.373 63.954"
	 xml:space="preserve">
<linearGradient id="SVGID_1_" gradientUnits="userSpaceOnUse" x1="138.4277" y1="31.7974" x2="264.715" y2="31.7974">
	<stop  offset="0" style="stop-color:#F05A28"/>
	<stop  offset="1" style="stop-color:#E80A89"/>
</linearGradient>
<path fill="url(#SVGID_1_)" d="M234.722,30.179c0-13.611-11.035-24.647-24.646-24.647c-13.612,0-24.647,11.036-24.647,24.647
	c0,10.026,5.989,18.647,14.582,22.499c0,0.002-0.002,0.004-0.002,0.007c-0.213,2.024-2.899,5.209-2.815,5.378
	c2.004-0.287,14.121-2.928,17.701-3.709c0.221-0.044,0.438-0.096,0.657-0.146c0.218-0.047,0.343-0.074,0.343-0.074
	s-0.008-0.002-0.009-0.002C226.692,51.518,234.722,41.79,234.722,30.179z M231.356,27.235c0,3.438-2.787,6.227-6.225,6.227
	c-3.439,0-6.226-2.789-6.226-6.227s2.786-6.226,6.226-6.226C228.569,21.009,231.356,23.797,231.356,27.235z M214.701,9.485
	c3.437,0,6.226,2.787,6.226,6.225s-2.789,6.226-6.226,6.226c-3.438,0-6.226-2.788-6.226-6.226S211.263,9.485,214.701,9.485z
	 M199.392,13.271c3.438,0,6.224,2.787,6.224,6.225s-2.786,6.225-6.224,6.225c-3.438,0-6.227-2.787-6.227-6.225
	C193.166,16.058,195.953,13.271,199.392,13.271z M194.931,40.274c-3.437,0-6.224-2.788-6.224-6.227c0-3.438,2.787-6.224,6.224-6.224
	c3.438,0,6.227,2.787,6.227,6.224C201.157,37.486,198.37,40.274,194.931,40.274z M205.615,39.179c3.438,0,6.226,2.786,6.226,6.226
	s-2.787,6.227-6.226,6.227c-3.437,0-6.224-2.787-6.224-6.227S202.178,39.179,205.615,39.179z M220.926,48.349
	c-3.438,0-6.226-2.787-6.226-6.226c0-3.438,2.787-6.226,6.226-6.226c3.437,0,6.226,2.787,6.226,6.226S224.362,48.349,220.926,48.349
	z"/>
<g>
	<g>
		<linearGradient id="SVGID_2_" gradientUnits="userSpaceOnUse" x1="-29.3135" y1="29.2412" x2="360.6981" y2="29.2412">
			<stop  offset="0" style="stop-color:#F05A28"/>
			<stop  offset="1" style="stop-color:#E80A89"/>
		</linearGradient>
		<path fill="url(#SVGID_2_)" d="M4.163,45.249V13.234H25.67v5.456H10.385v8.25H23.1v5.05H10.385v13.256H4.163V45.249z"/>
		<linearGradient id="SVGID_3_" gradientUnits="userSpaceOnUse" x1="-29.3135" y1="28.7905" x2="360.6981" y2="28.7905">
			<stop  offset="0" style="stop-color:#F05A28"/>
			<stop  offset="1" style="stop-color:#E80A89"/>
		</linearGradient>
		<path fill="url(#SVGID_3_)" d="M29.458,18.329v-5.996H35.5v5.996H29.458z M29.458,45.249V21.62H35.5v23.626h-6.042V45.249z"/>
		<linearGradient id="SVGID_4_" gradientUnits="userSpaceOnUse" x1="-29.3135" y1="28.9702" x2="360.6981" y2="28.9702">
			<stop  offset="0" style="stop-color:#F05A28"/>
			<stop  offset="1" style="stop-color:#E80A89"/>
		</linearGradient>
		<path fill="url(#SVGID_4_)" d="M40.909,12.333h6.042v25.339c0,0.871,0.21,1.549,0.631,2.029c0.421,0.479,1.022,0.721,1.804,0.721
			c0.36,0,0.759-0.06,1.195-0.18c0.436-0.119,0.848-0.271,1.239-0.451l0.812,4.6c-0.812,0.391-1.759,0.691-2.84,0.9
			c-1.083,0.211-2.06,0.315-2.931,0.315c-1.894,0-3.359-0.503-4.396-1.51c-1.037-1.007-1.556-2.442-1.556-4.306V12.333z"/>
		<linearGradient id="SVGID_5_" gradientUnits="userSpaceOnUse" x1="-29.3135" y1="33.2319" x2="360.6981" y2="33.2319">
			<stop  offset="0" style="stop-color:#F05A28"/>
			<stop  offset="1" style="stop-color:#E80A89"/>
		</linearGradient>
		<path fill="url(#SVGID_5_)" d="M91.949,45.249h-6.042V31.99c0-1.893-0.323-3.275-0.97-4.147c-0.647-0.872-1.54-1.308-2.683-1.308
			c-1.202,0-2.33,0.458-3.381,1.375c-1.053,0.917-1.804,2.112-2.254,3.584v13.752h-6.042V31.99c0-1.893-0.323-3.275-0.969-4.147
			c-0.646-0.872-1.541-1.308-2.683-1.308c-1.172,0-2.292,0.452-3.359,1.353c-1.068,0.902-1.827,2.09-2.277,3.563v13.797h-6.042
			V21.62h5.456v4.374c0.872-1.533,2.067-2.713,3.585-3.54c1.517-0.827,3.254-1.239,5.208-1.239c1.984,0,3.517,0.481,4.599,1.442
			c1.082,0.962,1.773,2.15,2.074,3.562c0.961-1.623,2.179-2.863,3.652-3.719c1.472-0.857,3.156-1.285,5.05-1.285
			c1.442,0,2.63,0.27,3.562,0.811c0.932,0.542,1.653,1.249,2.164,2.119c0.511,0.873,0.864,1.865,1.059,2.976
			c0.196,1.113,0.293,2.24,0.293,3.381V45.249z"/>
		<linearGradient id="SVGID_6_" gradientUnits="userSpaceOnUse" x1="-29.3135" y1="29.2402" x2="360.6981" y2="29.2402">
			<stop  offset="0" style="stop-color:#F05A28"/>
			<stop  offset="1" style="stop-color:#E80A89"/>
		</linearGradient>
		<path fill="url(#SVGID_6_)" d="M106.918,13.234h5.5l12.174,32.013h-6.403l-2.976-7.98H104.03l-2.931,7.98h-6.402L106.918,13.234z
			 M114.087,32.893l-4.418-12.58l-4.599,12.58H114.087z"/>
		<linearGradient id="SVGID_7_" gradientUnits="userSpaceOnUse" x1="-29.3135" y1="38.0337" x2="360.6981" y2="38.0337">
			<stop  offset="0" style="stop-color:#F05A28"/>
			<stop  offset="1" style="stop-color:#E80A89"/>
		</linearGradient>
		<path fill="url(#SVGID_7_)" d="M141.683,45.698c-1.865,0-3.488-0.414-4.871-1.24s-2.465-1.944-3.246-3.357v13.752h-6.041V21.62
			h5.275v4.059c0.87-1.382,1.997-2.473,3.381-3.269c1.381-0.796,2.977-1.194,4.778-1.194c1.595,0,3.067,0.323,4.42,0.968
			c1.353,0.647,2.517,1.518,3.494,2.616c0.978,1.097,1.743,2.389,2.3,3.877c0.557,1.488,0.834,3.059,0.834,4.712
			c0,1.712-0.256,3.32-0.767,4.822c-0.513,1.504-1.226,2.813-2.142,3.924c-0.918,1.111-2.008,1.984-3.271,2.615
			C144.567,45.381,143.185,45.698,141.683,45.698z M139.653,40.557c0.902,0,1.736-0.194,2.502-0.586
			c0.768-0.391,1.421-0.916,1.962-1.577s0.961-1.427,1.263-2.302c0.301-0.87,0.45-1.771,0.45-2.703c0-0.992-0.165-1.917-0.496-2.774
			c-0.331-0.857-0.788-1.601-1.374-2.232c-0.586-0.631-1.279-1.126-2.074-1.488c-0.798-0.36-1.662-0.542-2.593-0.542
			c-0.571,0-1.159,0.099-1.759,0.293c-0.602,0.195-1.157,0.474-1.668,0.834c-0.512,0.361-0.971,0.782-1.375,1.263
			c-0.406,0.481-0.717,1.007-0.926,1.578v5.547c0.541,1.352,1.367,2.473,2.479,3.358C137.158,40.114,138.36,40.557,139.653,40.557z"
			/>
		<linearGradient id="SVGID_8_" gradientUnits="userSpaceOnUse" x1="-29.3135" y1="38.0337" x2="360.6981" y2="38.0337">
			<stop  offset="0" style="stop-color:#F05A28"/>
			<stop  offset="1" style="stop-color:#E80A89"/>
		</linearGradient>
		<path fill="url(#SVGID_8_)" d="M170.267,45.698c-1.865,0-3.486-0.414-4.869-1.24s-2.465-1.944-3.246-3.357v13.752h-6.041V21.62
			h5.273v4.059c0.872-1.382,1.999-2.473,3.383-3.269c1.383-0.796,2.977-1.194,4.778-1.194c1.595,0,3.065,0.323,4.419,0.968
			c1.354,0.647,2.518,1.518,3.494,2.616c0.979,1.097,1.743,2.389,2.3,3.877c0.558,1.488,0.833,3.059,0.833,4.712
			c0,1.712-0.254,3.32-0.766,4.822c-0.512,1.504-1.227,2.813-2.143,3.924c-0.916,1.111-2.006,1.984-3.27,2.615
			C173.153,45.381,171.771,45.698,170.267,45.698z M168.239,40.557c0.9,0,1.734-0.194,2.502-0.586
			c0.767-0.391,1.421-0.916,1.961-1.577c0.541-0.661,0.961-1.427,1.263-2.302c0.3-0.87,0.45-1.771,0.45-2.703
			c0-0.992-0.165-1.917-0.495-2.774c-0.332-0.857-0.789-1.601-1.375-2.232c-0.587-0.631-1.278-1.126-2.075-1.488
			c-0.796-0.36-1.66-0.542-2.593-0.542c-0.569,0-1.155,0.099-1.758,0.293c-0.603,0.195-1.157,0.474-1.667,0.834
			c-0.514,0.361-0.971,0.782-1.376,1.263c-0.406,0.481-0.714,1.007-0.925,1.578v5.547c0.541,1.352,1.367,2.473,2.479,3.358
			C165.743,40.114,166.946,40.557,168.239,40.557z"/>
	</g>
</g>
</svg>
